{
  "Ваш аватар": "Ваш аватар",
  "Ваш возраст": "Ваш возраст",
  "Ваш город": "Ваш город",
  "Ваша фамилия": "Ваша фамилия",
  "Ваше имя": "Ваше имя",
  "Данные не указаны": "Данные не указаны",
  "Имя и фамилия обязательны": "Имя и фамилия обязательны",
  "Имя пользователя": "Имя пользователя",
  "Некорректный возраст": "Некорректный возраст",
  "Некорректный регион": "Некорректный регион",
  "Отменить": "Отменить",
  "Произошла ошибка при зашрузке профиля": "Произошла ошибка при зашрузке профиля",
  "Профиль": "Профиль",
  "Редактировать": "Редактировать",
  "Серверная ошибка при сохранении": "Серверная ошибка при сохранении",
  "Сохранить": "Сохранить",
  "попробуйте обновить страницу": "попробуйте обновить страницу"
}
